<?xml version="1.0" encoding="utf-8"?>
<!DOCTYPE svg PUBLIC "-//W3C//DTD SVG 1.1//EN" "http://www.w3.org/Graphics/SVG/1.1/DTD/svg11.dtd">
<svg version="1.1" id="Layer_1" xmlns="http://www.w3.org/2000/svg" xmlns:xlink="http://www.w3.org/1999/xlink" x="0px" y="0px"
	 width="512px" height="512px" viewBox="0 0 512 512" enable-background="new 0 0 512 512" xml:space="preserve">
<g id="agenda">
	<path fill="#FFC261" d="M324.871,486.29c-3.685,4.068-9.722,4.068-13.406,0.017l-98.536-108.025
		c-3.707-4.051-3.551-10.561,0.33-14.438l29.398-29.378c3.878-3.878,10.189-3.835,13.988,0.098l54.435,56.226
		c3.817,3.953,9.974,3.857,13.673-0.192l103.217-113.094c3.702-4.05,10.055-4.362,14.143-0.703l32.608,29.324
		c4.096,3.662,4.408,9.994,0.722,14.046L324.871,486.29z"/>
	<path fill="#00ABFE" d="M384.814,44.829H81.056c-14.319,0-26.047,11.711-26.047,26.025v355.858
		c0,14.318,11.727,26.024,26.047,26.024H245.6l-52.796-57.878c-12.685-13.91-12.179-35.202,1.13-48.51l31.229-31.208
		c6.546-6.546,15.213-10.134,24.448-10.134c9.312,0,18.369,3.84,24.838,10.522l43.017,44.415l92.146-100.955
		c0.371-0.426,0.839-0.72,1.247-1.107V70.854C410.861,56.541,399.134,44.829,384.814,44.829z M140.184,226.537
		c0,4.772-3.916,8.688-8.689,8.688H113.86c-4.77,0-8.666-3.916-8.666-8.688v-8.671c0-4.771,3.896-8.688,8.666-8.688h17.635
		c4.773,0,8.689,3.917,8.689,8.688V226.537z M140.184,148.163c0,4.771-3.916,8.667-8.689,8.667H113.86
		c-4.77,0-8.666-3.896-8.666-8.667v-8.693c0-4.771,3.896-8.666,8.666-8.666h17.635c4.773,0,8.689,3.895,8.689,8.666V148.163z
		 M348.756,226.537c0,4.772-3.918,8.688-8.69,8.688H175.172c-4.771,0-8.688-3.916-8.688-8.688v-8.671
		c0-4.771,3.917-8.688,8.688-8.688h164.895c4.773,0,8.69,3.917,8.69,8.688L348.756,226.537L348.756,226.537z M348.756,148.163
		c0,4.771-3.918,8.667-8.69,8.667H175.172c-4.771,0-8.688-3.896-8.688-8.667v-8.693c0-4.771,3.917-8.666,8.688-8.666h164.895
		c4.773,0,8.69,3.895,8.69,8.666L348.756,148.163L348.756,148.163z"/>
</g>
</svg>
