<?xml version="1.0" encoding="utf-8"?>
<!DOCTYPE svg PUBLIC "-//W3C//DTD SVG 1.1//EN" "http://www.w3.org/Graphics/SVG/1.1/DTD/svg11.dtd">
<svg version="1.1"
	 id="Capa_1" inkscape:export-ydpi="54" inkscape:export-xdpi="54" sodipodi:docname="icn_astrometry.svg" inkscape:version="0.48.4 r9939" xmlns:dc="http://purl.org/dc/elements/1.1/" xmlns:cc="http://creativecommons.org/ns#" xmlns:rdf="http://www.w3.org/1999/02/22-rdf-syntax-ns#" xmlns:svg="http://www.w3.org/2000/svg" xmlns:sodipodi="http://sodipodi.sourceforge.net/DTD/sodipodi-0.dtd" xmlns:inkscape="http://www.inkscape.org/namespaces/inkscape"
	 xmlns="http://www.w3.org/2000/svg" xmlns:xlink="http://www.w3.org/1999/xlink" x="0px" y="0px" width="100px" height="100px"
	 viewBox="0 0 100 100" enable-background="new 0 0 100 100" xml:space="preserve">
<sodipodi:namedview  id="namedview33" inkscape:current-layer="Capa_1" inkscape:window-y="-9" inkscape:window-x="-9" inkscape:window-height="1005" inkscape:window-width="1920" inkscape:pageshadow="2" inkscape:pageopacity="0" inkscape:window-maximized="1" inkscape:cy="31.802043" inkscape:cx="-22.933219" guidetolerance="10" gridtolerance="10" inkscape:zoom="3.337544" objecttolerance="10" showgrid="false" borderopacity="1" bordercolor="#666666" pagecolor="#ffffff">
	</sodipodi:namedview>
<path fill="#00ABFE" d="M8.445,18.693v53.822c0,0.479,0.39,0.867,0.867,0.867h34.465v-6.047c0-0.306,0.04-0.602,0.089-0.898H15.388
	V28.149l32.476,23.815c0.309,0.224,0.721,0.224,1.028,0l32.477-23.815v27.588l6.946,5.342V18.693c0-0.481-0.389-0.87-0.867-0.87
	H9.313C8.835,17.824,8.445,18.212,8.445,18.693z M22.527,24.769h51.706L48.38,43.729L22.527,24.769z"/>
<path fill="#FFC261" d="M69.366,57.939c-0.147-0.372-0.03-0.796,0.29-1.037c0.319-0.24,0.762-0.24,1.078,0.006L92.551,73.68
	c0.219,0.17,0.346,0.429,0.346,0.707c0,0.274-0.128,0.537-0.346,0.703L70.734,91.863c-0.159,0.121-0.353,0.184-0.541,0.184
	s-0.377-0.059-0.537-0.181c-0.319-0.238-0.438-0.664-0.29-1.038l4.385-11.104l2.012-5.305l-2.012-5.373L69.366,57.939z"/>
<path fill="#FFC261" d="M49.547,57.939c-0.15-0.372-0.032-0.796,0.289-1.037c0.319-0.24,0.763-0.24,1.079,0.006L72.73,73.68
	c0.218,0.17,0.346,0.429,0.346,0.707c0,0.274-0.128,0.537-0.346,0.703L50.915,91.863c-0.159,0.121-0.353,0.184-0.542,0.184
	c-0.188,0-0.377-0.059-0.537-0.181c-0.318-0.238-0.439-0.664-0.289-1.038l4.384-11.104l2.012-5.305l-2.012-5.373L49.547,57.939z"/>
</svg>
