<?xml version="1.0" encoding="utf-8"?>
<svg version="1.1" id="Layer_1" xmlns="http://www.w3.org/2000/svg" xmlns:xlink="http://www.w3.org/1999/xlink" x="0px" y="0px"
	 width="22.354px" height="23.066px" viewBox="0 0 22.354 23.066" enable-background="new 0 0 22.354 23.066" xml:space="preserve">
<rect fill="#00ABFE" x="0" y="8.967" width="22.354" height="5.132"/>
</svg>
