      ,-.  
     / \  `.  __..-,O     Decide to listen...
    :   \ --''_..-'.'    
    |    . .-' `. '.     
    :     .     .`.'     
     \     `.  /  ..     
      \      `.   ' .    
       `,       `.   \   
      ,|,`.        `-.\  
     '.||  ``-...__..-`  
      |  | 
      |__| 
      /||\ 
     //||\\
    // || \\                 \| /      
 __//__||__\\__               \/      / 
'--------------'_______\_|____|_______|____
